…
``` r
cv_res_df = 
  cv_df %>% 
  mutate(
    linear_mod = map(train, \(x) lm(logratio ~ range, data = x))) %>% 
  mutate(
    rmse_linear = map2_dbl(linear_mod, test, rmse)
  )

print(cv_res_df)
```

    ## # A tibble: 100 × 5
    ##    train              test              .id   linear_mod rmse_linear
    ##    <list>             <list>            <chr> <list>           <dbl>
    ##  1 <tibble [176 × 3]> <tibble [45 × 3]> 001   <lm>             0.134
    ##  2 <tibble [176 × 3]> <tibble [45 × 3]> 002   <lm>             0.142
    ##  3 <tibble [176 × 3]> <tibble [45 × 3]> 003   <lm>             0.128
    ##  4 <tibble [176 × 3]> <tibble [45 × 3]> 004   <lm>             0.142
    ##  5 <tibble [176 × 3]> <tibble [45 × 3]> 005   <lm>             0.136
    ##  6 <tibble [176 × 3]> <tibble [45 × 3]> 006   <lm>             0.143
    ##  7 <tibble [176 × 3]> <tibble [45 × 3]> 007   <lm>             0.140
    ##  8 <tibble [176 × 3]> <tibble [45 × 3]> 008   <lm>             0.130
    ##  9 <tibble [176 × 3]> <tibble [45 × 3]> 009   <lm>             0.135
    ## 10 <tibble [176 × 3]> <tibble [45 × 3]> 010   <lm>             0.137
    ## # ℹ 90 more rows
…
