…
## Bootstrap a lot

``` r
boot_straps = 
  tibble(
    strap_number = 1:1000
  ) %>% 
  mutate(
    strap_sample = map(strap_number, \(x) boot_sample(df = sim_df_nonconstant))
  )

boot_straps
```

    ## # A tibble: 1,000 × 2
    ##    strap_number strap_sample      
    ##           <int> <list>            
    ##  1            1 <tibble [250 × 3]>
    ##  2            2 <tibble [250 × 3]>
    ##  3            3 <tibble [250 × 3]>
    ##  4            4 <tibble [250 × 3]>
    ##  5            5 <tibble [250 × 3]>
    ##  6            6 <tibble [250 × 3]>
    ##  7            7 <tibble [250 × 3]>
    ##  8            8 <tibble [250 × 3]>
    ##  9            9 <tibble [250 × 3]>
    ## 10           10 <tibble [250 × 3]>
    ## # ℹ 990 more rows
…
``` r
boot_straps = 
  tibble(
    strap_number = 1:1000
  ) %>% 
  mutate(
    strap_sample = map(strap_number, \(x) boot_sample(df = sim_df_nonconstant)),
    models = map(strap_sample, \(df) lm(y ~ x, data = df))
  )

boot_straps
```

    ## # A tibble: 1,000 × 3
    ##    strap_number strap_sample       models
    ##           <int> <list>             <list>
    ##  1            1 <tibble [250 × 3]> <lm>  
    ##  2            2 <tibble [250 × 3]> <lm>  
    ##  3            3 <tibble [250 × 3]> <lm>  
    ##  4            4 <tibble [250 × 3]> <lm>  
    ##  5            5 <tibble [250 × 3]> <lm>  
    ##  6            6 <tibble [250 × 3]> <lm>  
    ##  7            7 <tibble [250 × 3]> <lm>  
    ##  8            8 <tibble [250 × 3]> <lm>  
    ##  9            9 <tibble [250 × 3]> <lm>  
    ## 10           10 <tibble [250 × 3]> <lm>  
    ## # ℹ 990 more rows
…
``` r
boot_straps = 
  tibble(
    strap_number = 1:1000
  ) %>% 
  mutate(
    strap_sample = map(strap_number, \(x) boot_sample(df = sim_df_nonconstant)),
    models = map(strap_sample, \(df) lm(y ~ x, data = df)),
    results = map(models, broom::tidy)
  )

boot_straps
```

    ## # A tibble: 1,000 × 4
    ##    strap_number strap_sample       models results         
    ##           <int> <list>             <list> <list>          
    ##  1            1 <tibble [250 × 3]> <lm>   <tibble [2 × 5]>
    ##  2            2 <tibble [250 × 3]> <lm>   <tibble [2 × 5]>
    ##  3            3 <tibble [250 × 3]> <lm>   <tibble [2 × 5]>
    ##  4            4 <tibble [250 × 3]> <lm>   <tibble [2 × 5]>
    ##  5            5 <tibble [250 × 3]> <lm>   <tibble [2 × 5]>
    ##  6            6 <tibble [250 × 3]> <lm>   <tibble [2 × 5]>
    ##  7            7 <tibble [250 × 3]> <lm>   <tibble [2 × 5]>
    ##  8            8 <tibble [250 × 3]> <lm>   <tibble [2 × 5]>
    ##  9            9 <tibble [250 × 3]> <lm>   <tibble [2 × 5]>
    ## 10           10 <tibble [250 × 3]> <lm>   <tibble [2 × 5]>
    ## # ℹ 990 more rows

``` r
bootstraps_results = 
  boot_straps %>% 
  select(strap_number, results) %>% 
  unnest(results)

bootstraps_results
```

    ## # A tibble: 2,000 × 6
    ##    strap_number term        estimate std.error statistic   p.value
    ##           <int> <chr>          <dbl>     <dbl>     <dbl>     <dbl>
    ##  1            1 (Intercept)     1.82    0.0923      19.8 7.82e- 53
    ##  2            1 x               3.07    0.0659      46.5 1.90e-124
    ##  3            2 (Intercept)     1.90    0.104       18.2 1.07e- 47
    ##  4            2 x               3.09    0.0756      40.9 3.22e-112
    ##  5            3 (Intercept)     2.01    0.114       17.6 2.16e- 45
    ##  6            3 x               3.15    0.0760      41.5 1.15e-113
    ##  7            4 (Intercept)     1.89    0.113       16.8 7.93e- 43
    ##  8            4 x               3.30    0.0765      43.1 3.07e-117
    ##  9            5 (Intercept)     2.00    0.102       19.7 1.52e- 52
    ## 10            5 x               3.03    0.0715      42.4 1.40e-115
    ## # ℹ 1,990 more rows
…
boot_straps
```

    ## # A tibble: 2,000 × 6
    ##    .id   term        estimate std.error statistic   p.value
    ##    <chr> <chr>          <dbl>     <dbl>     <dbl>     <dbl>
    ##  1 0001  (Intercept)     1.88    0.117       16.1 1.84e- 40
    ##  2 0001  x               3.28    0.0838      39.1 3.98e-108
    ##  3 0002  (Intercept)     2.03    0.125       16.2 1.35e- 40
    ##  4 0002  x               3.03    0.0857      35.3 9.39e- 99
    ##  5 0003  (Intercept)     1.96    0.115       17.1 8.21e- 44
    ##  6 0003  x               3.13    0.0807      38.8 2.19e-107
    ##  7 0004  (Intercept)     1.87    0.0860      21.8 1.49e- 59
    ##  8 0004  x               3.18    0.0645      49.3 3.89e-130
    ##  9 0005  (Intercept)     1.96    0.103       19.2 7.39e- 51
    ## 10 0005  x               3.04    0.0703      43.3 1.55e-117
    ## # ℹ 1,990 more rows
…
